{
    "$schema": "https://schema.berlin.de/queuemanagement/mail.json",
    "createIP": "145.15.3.10",
    "createTimestamp": 1447931596000,
    "department": {
        "id": 123
    },
    "id": 1,
    "multipart": [
        {
            "queueId": "1234",
            "mime": "text/html",
            "content": "<h1>Title</h1><p>Message</p>",
            "base64": false
        },
        {
            "queueId": "1234",
            "mime": "text/plain",
            "content": "Title\nMessage",
            "base64": false
        }
    ],
    "process": {
        "clients": [
            {
                "familyName": "Max Mustermann",
                "email": "testclient@example.com",
                "telephone": "030 115"
            }
        ],
        "id": 10029,
        "authKey": "1c56",
        "reminderTimestamp": 1447931730000,
        "scope": {
            "id": 151
        },
        "status": "confirmed"
    },
    "subject": "Example Mail",
    "client": [
        {
            "familyName": "Max Mustermann",
            "email": "testclient@example.com"
        }
    ]
}
